Homework 5 Key
…
You will probably want to follow a process like this:

Make a new dataframe with the total number of votes cast for any actual candidates (including "Write-In") in each precinct and race. Hint: You will likely want to use filter() followed by group_by() and summarize() using the SumOfCount variable.

MAke another dataframe with the total number of votes for democratic candidates in each precinct and race. You will want to check the Party of candidates and work only with the democratic observations to get these vote counts. Hint: There are different democratic parties for different races (e.g."Dem" or "DPN").

Merge the total votes data with the democratic votes data, then calculate a percent democratic votes variable for each race.

I observe that for the races of interest, the proper candidates all have rows where Party is not NP:

king_flag %>%
    select(Race, Party, CounterType) %>%
    distinct()

## # A tibble: 26 x 3
##    Race                Party CounterType      
##    <chr>               <chr> <chr>            
##  1 Governor            Dem   Jay Inslee       
##  2 Governor            NP    Registered Voters
##  3 Governor            NP    Times Blank Voted
##  4 Governor            NP    Times Counted    
##  5 Governor            NP    Times Over Voted 
##  6 Governor            NP    Write-In         
##  7 Governor            Rep   Bill Bryant      
##  8 Lieutenant Governor Dem   Cyrus Habib      
##  9 Lieutenant Governor NP    Registered Voters
## 10 Lieutenant Governor NP    Times Blank Voted
## # ... with 16 more rows
…
We can make this wide using spread() and clean up the names a bit:

wide_precinct_data <- precinct_data %>%
    pivot_wider(names_from = Race, values_from = `Democrat support`) %>%
    rename(Governor = `Governor`,
           `Lt. Governor` = `Lieutenant Governor`,
           President = `US President & Vice President`)
wide_precinct_data

## # A tibble: 2,517 x 8
##    Precinct      Location    `Registered Voter~ `Times Counted` Turnout Governor
##    <chr>         <chr>                    <dbl>           <dbl>   <dbl>    <dbl>
##  1 ADAIR         Not Seattle                519             485   0.934    0.532
##  2 ALDARRA       Not Seattle                763             625   0.819    0.481
##  3 ALDER SPRINGS Not Seattle                557             476   0.855    0.458
##  4 ALDERWOOD     Not Seattle                472             404   0.856    0.519
##  5 ALG 30-0013   Not Seattle                497             319   0.642    0.557
##  6 ALG 30-0014   Not Seattle                525             364   0.693    0.602
##  7 ALG 30-3141   Not Seattle                551             364   0.661    0.439
##  8 ALPINE        Not Seattle                629             513   0.816    0.483
##  9 AMES LAKE     Not Seattle                865             726   0.839    0.522
## 10 ANGEL CITY    Not Seattle                779             546   0.701    0.795
## # ... with 2,507 more rows, and 2 more variables: Lt. Governor <dbl>,
## #   President <dbl>
…
